\relax 
\ifx\hyper@anchor\@undefined
\global \let \oldcontentsline\contentsline
\gdef \contentsline#1#2#3#4{\oldcontentsline{#1}{#2}{#3}}
\global \let \oldnewlabel\newlabel
\gdef \newlabel#1#2{\newlabelxx{#1}#2}
\gdef \newlabelxx#1#2#3#4#5#6{\oldnewlabel{#1}{{#2}{#3}}}
\AtEndDocument{\let \contentsline\oldcontentsline
\let \newlabel\oldnewlabel}
\else
\global \let \hyper@last\relax 
\fi

\citation{Arnaud}
\citation{PlanckYM}
\bibcite{Arnaud}{1}
\bibcite{KS}{2}
\bibcite{PlanckYM}{3}
\@writefile{toc}{\contentsline {section}{\numberline {1}Pressure, temperature, and density profiles}{1}{section.1}}
\@writefile{toc}{\contentsline {section}{\numberline {2}Calculating Y parameters}{1}{section.2}}
\@writefile{toc}{\contentsline {section}{\numberline {3}Published cluster pressure profiles}{1}{section.3}}
