\relax 
\ifx\hyper@anchor\@undefined
\global \let \oldcontentsline\contentsline
\gdef \contentsline#1#2#3#4{\oldcontentsline{#1}{#2}{#3}}
\global \let \oldnewlabel\newlabel
\gdef \newlabel#1#2{\newlabelxx{#1}#2}
\gdef \newlabelxx#1#2#3#4#5#6{\oldnewlabel{#1}{{#2}{#3}}}
\AtEndDocument{\let \contentsline\oldcontentsline
\let \newlabel\oldnewlabel}
\else
\global \let \hyper@last\relax 
\fi

\citation{Arnaud}
\citation{PlanckAMI}
\@writefile{toc}{\contentsline {subsection}{\numberline {0.1}Discrepancies in the literature}{1}{subsection.0.1}}
\citation{PlanckAMI}
\bibcite{Arnaud}{1}
\bibcite{KS}{2}
\bibcite{PlanckYM}{3}
\bibcite{PlanckAMI}{4}
